[
    [
        [
            0.05,
            0.1
        ],
        [
            0.1,
            0.1
        ],
        [
            0.1,
            0.11
        ],
        [
            0.05,
            0.11
        ]
    ],
    [
        [
            0.15,
            0.1
        ],
        [
            0.2,
            0.1
        ],
        [
            0.2,
            0.11
        ],
        [
            0.15,
            0.11
        ]
    ],
    [
        [
            0.25,
            0.1
        ],
        [
            0.3,
            0.1
        ],
        [
            0.3,
            0.11
        ],
        [
            0.25,
            0.11
        ]
    ],
    [
        [
            0.35,
            0.1
        ],
        [
            0.4,
            0.1
        ],
        [
            0.4,
            0.11
        ],
        [
            0.35,
            0.11
        ]
    ],
    [
        [
            0.45,
            0.1
        ],
        [
            0.5,
            0.1
        ],
        [
            0.5,
            0.11
        ],
        [
            0.45,
            0.11
        ]
    ],
    [
        [
            0.55,
            0.1
        ],
        [
            0.6,
            0.1
        ],
        [
            0.6,
            0.11
        ],
        [
            0.55,
            0.11
        ]
    ],
    [
        [
            0.65,
            0.1
        ],
        [
            0.7,
            0.1
        ],
        [
            0.7,
            0.11
        ],
        [
            0.65,
            0.11
        ]
    ],
    [
        [
            0.75,
            0.1
        ],
        [
            0.8,
            0.1
        ],
        [
            0.8,
            0.11
        ],
        [
            0.75,
            0.11
        ]
    ],
    [
        [
            0.85,
            0.1
        ],
        [
            0.9,
            0.1
        ],
        [
            0.9,
            0.11
        ],
        [
            0.85,
            0.11
        ]
    ],
    [
        [
            0.05,
            0.2
        ],
        [
            0.1,
            0.2
        ],
        [
            0.1,
            0.21
        ],
        [
            0.05,
            0.21
        ]
    ],
    [
        [
            0.15,
            0.2
        ],
        [
            0.2,
            0.2
        ],
        [
            0.2,
            0.21
        ],
        [
            0.15,
            0.21
        ]
    ],
    [
        [
            0.25,
            0.2
        ],
        [
            0.3,
            0.2
        ],
        [
            0.3,
            0.21
        ],
        [
            0.25,
            0.21
        ]
    ],
    [
        [
            0.35,
            0.2
        ],
        [
            0.4,
            0.2
        ],
        [
            0.4,
            0.21
        ],
        [
            0.35,
            0.21
        ]
    ],
    [
        [
            0.45,
            0.2
        ],
        [
            0.5,
            0.2
        ],
        [
            0.5,
            0.21
        ],
        [
            0.45,
            0.21
        ]
    ],
    [
        [
            0.55,
            0.2
        ],
        [
            0.6,
            0.2
        ],
        [
            0.6,
            0.21
        ],
        [
            0.55,
            0.21
        ]
    ],
    [
        [
            0.65,
            0.2
        ],
        [
            0.7,
            0.2
        ],
        [
            0.7,
            0.21
        ],
        [
            0.65,
            0.21
        ]
    ],
    [
        [
            0.75,
            0.2
        ],
        [
            0.8,
            0.2
        ],
        [
            0.8,
            0.21
        ],
        [
            0.75,
            0.21
        ]
    ],
    [
        [
            0.85,
            0.2
        ],
        [
            0.9,
            0.2
        ],
        [
            0.9,
            0.21
        ],
        [
            0.85,
            0.21
        ]
    ],
    [
        [
            0.05,
            0.3
        ],
        [
            0.1,
            0.3
        ],
        [
            0.1,
            0.31
        ],
        [
            0.05,
            0.31
        ]
    ],
    [
        [
            0.15,
            0.3
        ],
        [
            0.2,
            0.3
        ],
        [
            0.2,
            0.31
        ],
        [
            0.15,
            0.31
        ]
    ],
    [
        [
            0.25,
            0.3
        ],
        [
            0.3,
            0.3
        ],
        [
            0.3,
            0.31
        ],
        [
            0.25,
            0.31
        ]
    ],
    [
        [
            0.35,
            0.3
        ],
        [
            0.4,
            0.3
        ],
        [
            0.4,
            0.31
        ],
        [
            0.35,
            0.31
        ]
    ],
    [
        [
            0.45,
            0.3
        ],
        [
            0.5,
            0.3
        ],
        [
            0.5,
            0.31
        ],
        [
            0.45,
            0.31
        ]
    ],
    [
        [
            0.55,
            0.3
        ],
        [
            0.6,
            0.3
        ],
        [
            0.6,
            0.31
        ],
        [
            0.55,
            0.31
        ]
    ],
    [
        [
            0.65,
            0.3
        ],
        [
            0.7,
            0.3
        ],
        [
            0.7,
            0.31
        ],
        [
            0.65,
            0.31
        ]
    ],
    [
        [
            0.75,
            0.3
        ],
        [
            0.8,
            0.3
        ],
        [
            0.8,
            0.31
        ],
        [
            0.75,
            0.31
        ]
    ],
    [
        [
            0.85,
            0.3
        ],
        [
            0.9,
            0.3
        ],
        [
            0.9,
            0.31
        ],
        [
            0.85,
            0.31
        ]
    ],
    [
        [
            0.05,
            0.4
        ],
        [
            0.1,
            0.4
        ],
        [
            0.1,
            0.41
        ],
        [
            0.05,
            0.41
        ]
    ],
    [
        [
            0.15,
            0.4
        ],
        [
            0.2,
            0.4
        ],
        [
            0.2,
            0.41
        ],
        [
            0.15,
            0.41
        ]
    ],
    [
        [
            0.25,
            0.4
        ],
        [
            0.3,
            0.4
        ],
        [
            0.3,
            0.41
        ],
        [
            0.25,
            0.41
        ]
    ],
    [
        [
            0.35,
            0.4
        ],
        [
            0.4,
            0.4
        ],
        [
            0.4,
            0.41
        ],
        [
            0.35,
            0.41
        ]
    ],
    [
        [
            0.45,
            0.4
        ],
        [
            0.5,
            0.4
        ],
        [
            0.5,
            0.41
        ],
        [
            0.45,
            0.41
        ]
    ],
    [
        [
            0.55,
            0.4
        ],
        [
            0.6,
            0.4
        ],
        [
            0.6,
            0.41
        ],
        [
            0.55,
            0.41
        ]
    ],
    [
        [
            0.65,
            0.4
        ],
        [
            0.7,
            0.4
        ],
        [
            0.7,
            0.41
        ],
        [
            0.65,
            0.41
        ]
    ],
    [
        [
            0.75,
            0.4
        ],
        [
            0.8,
            0.4
        ],
        [
            0.8,
            0.41
        ],
        [
            0.75,
            0.41
        ]
    ],
    [
        [
            0.85,
            0.4
        ],
        [
            0.9,
            0.4
        ],
        [
            0.9,
            0.41
        ],
        [
            0.85,
            0.41
        ]
    ],
    [
        [
            0.05,
            0.5
        ],
        [
            0.1,
            0.5
        ],
        [
            0.1,
            0.51
        ],
        [
            0.05,
            0.51
        ]
    ],
    [
        [
            0.15,
            0.5
        ],
        [
            0.2,
            0.5
        ],
        [
            0.2,
            0.51
        ],
        [
            0.15,
            0.51
        ]
    ],
    [
        [
            0.25,
            0.5
        ],
        [
            0.3,
            0.5
        ],
        [
            0.3,
            0.51
        ],
        [
            0.25,
            0.51
        ]
    ],
    [
        [
            0.35,
            0.5
        ],
        [
            0.4,
            0.5
        ],
        [
            0.4,
            0.51
        ],
        [
            0.35,
            0.51
        ]
    ],
    [
        [
            0.45,
            0.5
        ],
        [
            0.5,
            0.5
        ],
        [
            0.5,
            0.51
        ],
        [
            0.45,
            0.51
        ]
    ],
    [
        [
            0.55,
            0.5
        ],
        [
            0.6,
            0.5
        ],
        [
            0.6,
            0.51
        ],
        [
            0.55,
            0.51
        ]
    ],
    [
        [
            0.65,
            0.5
        ],
        [
            0.7,
            0.5
        ],
        [
            0.7,
            0.51
        ],
        [
            0.65,
            0.51
        ]
    ],
    [
        [
            0.75,
            0.5
        ],
        [
            0.8,
            0.5
        ],
        [
            0.8,
            0.51
        ],
        [
            0.75,
            0.51
        ]
    ],
    [
        [
            0.85,
            0.5
        ],
        [
            0.9,
            0.5
        ],
        [
            0.9,
            0.51
        ],
        [
            0.85,
            0.51
        ]
    ],
    [
        [
            0.05,
            0.6
        ],
        [
            0.1,
            0.6
        ],
        [
            0.1,
            0.61
        ],
        [
            0.05,
            0.61
        ]
    ],
    [
        [
            0.15,
            0.6
        ],
        [
            0.2,
            0.6
        ],
        [
            0.2,
            0.61
        ],
        [
            0.15,
            0.61
        ]
    ],
    [
        [
            0.25,
            0.6
        ],
        [
            0.3,
            0.6
        ],
        [
            0.3,
            0.61
        ],
        [
            0.25,
            0.61
        ]
    ],
    [
        [
            0.35,
            0.6
        ],
        [
            0.4,
            0.6
        ],
        [
            0.4,
            0.61
        ],
        [
            0.35,
            0.61
        ]
    ],
    [
        [
            0.45,
            0.6
        ],
        [
            0.5,
            0.6
        ],
        [
            0.5,
            0.61
        ],
        [
            0.45,
            0.61
        ]
    ],
    [
        [
            0.55,
            0.6
        ],
        [
            0.6,
            0.6
        ],
        [
            0.6,
            0.61
        ],
        [
            0.55,
            0.61
        ]
    ],
    [
        [
            0.65,
            0.6
        ],
        [
            0.7,
            0.6
        ],
        [
            0.7,
            0.61
        ],
        [
            0.65,
            0.61
        ]
    ],
    [
        [
            0.75,
            0.6
        ],
        [
            0.8,
            0.6
        ],
        [
            0.8,
            0.61
        ],
        [
            0.75,
            0.61
        ]
    ],
    [
        [
            0.85,
            0.6
        ],
        [
            0.9,
            0.6
        ],
        [
            0.9,
            0.61
        ],
        [
            0.85,
            0.61
        ]
    ],
    [
        [
            0.05,
            0.7
        ],
        [
            0.1,
            0.7
        ],
        [
            0.1,
            0.71
        ],
        [
            0.05,
            0.71
        ]
    ],
    [
        [
            0.15,
            0.7
        ],
        [
            0.2,
            0.7
        ],
        [
            0.2,
            0.71
        ],
        [
            0.15,
            0.71
        ]
    ],
    [
        [
            0.25,
            0.7
        ],
        [
            0.3,
            0.7
        ],
        [
            0.3,
            0.71
        ],
        [
            0.25,
            0.71
        ]
    ],
    [
        [
            0.35,
            0.7
        ],
        [
            0.4,
            0.7
        ],
        [
            0.4,
            0.71
        ],
        [
            0.35,
            0.71
        ]
    ],
    [
        [
            0.45,
            0.7
        ],
        [
            0.5,
            0.7
        ],
        [
            0.5,
            0.71
        ],
        [
            0.45,
            0.71
        ]
    ],
    [
        [
            0.55,
            0.7
        ],
        [
            0.6,
            0.7
        ],
        [
            0.6,
            0.71
        ],
        [
            0.55,
            0.71
        ]
    ],
    [
        [
            0.65,
            0.7
        ],
        [
            0.7,
            0.7
        ],
        [
            0.7,
            0.71
        ],
        [
            0.65,
            0.71
        ]
    ],
    [
        [
            0.75,
            0.7
        ],
        [
            0.8,
            0.7
        ],
        [
            0.8,
            0.71
        ],
        [
            0.75,
            0.71
        ]
    ],
    [
        [
            0.85,
            0.7
        ],
        [
            0.9,
            0.7
        ],
        [
            0.9,
            0.71
        ],
        [
            0.85,
            0.71
        ]
    ],
    [
        [
            0.05,
            0.8
        ],
        [
            0.1,
            0.8
        ],
        [
            0.1,
            0.81
        ],
        [
            0.05,
            0.81
        ]
    ],
    [
        [
            0.15,
            0.8
        ],
        [
            0.2,
            0.8
        ],
        [
            0.2,
            0.81
        ],
        [
            0.15,
            0.81
        ]
    ],
    [
        [
            0.25,
            0.8
        ],
        [
            0.3,
            0.8
        ],
        [
            0.3,
            0.81
        ],
        [
            0.25,
            0.81
        ]
    ],
    [
        [
            0.35,
            0.8
        ],
        [
            0.4,
            0.8
        ],
        [
            0.4,
            0.81
        ],
        [
            0.35,
            0.81
        ]
    ],
    [
        [
            0.45,
            0.8
        ],
        [
            0.5,
            0.8
        ],
        [
            0.5,
            0.81
        ],
        [
            0.45,
            0.81
        ]
    ],
    [
        [
            0.55,
            0.8
        ],
        [
            0.6,
            0.8
        ],
        [
            0.6,
            0.81
        ],
        [
            0.55,
            0.81
        ]
    ],
    [
        [
            0.65,
            0.8
        ],
        [
            0.7,
            0.8
        ],
        [
            0.7,
            0.81
        ],
        [
            0.65,
            0.81
        ]
    ],
    [
        [
            0.75,
            0.8
        ],
        [
            0.8,
            0.8
        ],
        [
            0.8,
            0.81
        ],
        [
            0.75,
            0.81
        ]
    ],
    [
        [
            0.85,
            0.8
        ],
        [
            0.9,
            0.8
        ],
        [
            0.9,
            0.81
        ],
        [
            0.85,
            0.81
        ]
    ],
    [
        [
            0.05,
            0.9
        ],
        [
            0.1,
            0.9
        ],
        [
            0.1,
            0.91
        ],
        [
            0.05,
            0.91
        ]
    ],
    [
        [
            0.15,
            0.9
        ],
        [
            0.2,
            0.9
        ],
        [
            0.2,
            0.91
        ],
        [
            0.15,
            0.91
        ]
    ],
    [
        [
            0.25,
            0.9
        ],
        [
            0.3,
            0.9
        ],
        [
            0.3,
            0.91
        ],
        [
            0.25,
            0.91
        ]
    ],
    [
        [
            0.35,
            0.9
        ],
        [
            0.4,
            0.9
        ],
        [
            0.4,
            0.91
        ],
        [
            0.35,
            0.91
        ]
    ],
    [
        [
            0.45,
            0.9
        ],
        [
            0.5,
            0.9
        ],
        [
            0.5,
            0.91
        ],
        [
            0.45,
            0.91
        ]
    ],
    [
        [
            0.55,
            0.9
        ],
        [
            0.6,
            0.9
        ],
        [
            0.6,
            0.91
        ],
        [
            0.55,
            0.91
        ]
    ],
    [
        [
            0.65,
            0.9
        ],
        [
            0.7,
            0.9
        ],
        [
            0.7,
            0.91
        ],
        [
            0.65,
            0.91
        ]
    ],
    [
        [
            0.75,
            0.9
        ],
        [
            0.8,
            0.9
        ],
        [
            0.8,
            0.91
        ],
        [
            0.75,
            0.91
        ]
    ],
    [
        [
            0.85,
            0.9
        ],
        [
            0.9,
            0.9
        ],
        [
            0.9,
            0.91
        ],
        [
            0.85,
            0.91
        ]
    ]
]
