[
  [
      [
        0.4,
        1.0
      ],
      [
        0.6,
        1.0
      ],
      [
        0.6,
        0.75
      ],
      [
        0.4,
        0.75
      ]

  ],
  [
    [
      0.4,
      0.2
    ],
    [
      0.4,
      0.7
    ],
    [
      0.6,
      0.7
    ],
    [
      0.6,
      0.2
    ]
  ]

]
