[
    [
        [
            0.4,
            0.4
        ],
        [
            0.8,
            0.5
        ],
        [
            0.7,
            0.7
        ],
        [
            0.4,
            0.7
        ]
    ],
    [
        [
            0.1,
            0.1
        ],
        [
            0.4,
            0.1
        ],
        [
            0.2,
            0.2
        ],
        [
            0.1,
            0.4
        ]
    ],
    [
        [
            -0.01,
            -0.01
        ],
        [
            1.01,
            -0.01
        ],
        [
            1.01,
            0.0
        ],
        [
            -0.01,
            0.0
        ]
    ],
    [
        [
            -0.01,
            0.0
        ],
        [
            0.0,
            0.0
        ],
        [
            0.0,
            1.0
        ],
        [
            -0.01,
            1.0
        ]
    ],
    [
        [
            -0.01,
            1.0
        ],
        [
            1.01,
            1.0
        ],
        [
            1.01,
            1.01
        ],
        [
            -0.01,
            1.01
        ]
    ],
    [
        [
            1.0,
            0.0
        ],
        [
            1.01,
            0.0
        ],
        [
            1.01,
            1.0
        ],
        [
            1.0,
            1.0
        ]
    ]
]